Discharge Analysis
…
          "Unknown/Not reported"))))))),
         percent_NEET = mean(NEET == 1, na.rm=T),
         any_NEET = any(NEET == 1, na.rm=T),
         Age_Entry_Months = na.locf(Age_Entry_Months, na.rm=FALSE),
         Age_Entry_Years = ifelse(any(!is.na(Age_Entry_Months)), round(Age_Entry_Months / 12, 1), NA)
  ) %>%
  ungroup() %>%
  # finally, some row-level variables that are a function of person-level variables
  mutate(
    Age_At_Assessment = round( (Age_Entry_Months + CSC_Duration_Totalmos) / 12, 1 )
  )
# verify that the race codes make sense
dat %>% subset(Assessment_Type ==0 ) %>% select(Race_Black, Race_White, Race_Asian, Race_Other,  Ethnicity, hispanic_c, black_c, white_c, race_c, simple_race)

## # A tibble: 5,083 x 10
##    Race_Black Race_White Race_Asian Race_Other Ethnicity hispanic_c black_c
##         <dbl>      <dbl>      <dbl>      <dbl>     <dbl> <lgl>      <lgl>  
##  1         -9         -9         -9          0        -8 FALSE      FALSE  
##  2         -9         -9         -9          0         1 TRUE       FALSE  
##  3         -9         -9         -9          0         1 TRUE       FALSE  
##  4         -9         -9         -9          0         1 TRUE       FALSE  
##  5         -9         -9         -9          0         2 FALSE      FALSE  
##  6         -9         -9         -9          0         1 TRUE       FALSE  
##  7         -9         -9         -9          0         1 TRUE       FALSE  
##  8         -9         -9         -9          0         1 TRUE       FALSE  
##  9         -9         -9         -9          0         2 FALSE      FALSE  
## 10         -9          1          1          0         2 FALSE      FALSE  
## # i 5,073 more rows
## # i 3 more variables: white_c <lgl>, race_c <chr>, simple_race <fct>
…
